TabPFN - Foundation Model for Tabular Data • TabPFN
…
require(modeldata)
require(ggplot2)
#> Loading required package: ggplot2

two_cls_train <- parabolic[1:400,  ]
two_cls_val   <- parabolic[401:500,]
grid <- expand.grid(X1 = seq(-5.1, 5.0, length.out = 25), 
                    X2 = seq(-5.5, 4.0, length.out = 25))

cls_mod <- TabPFN(class ~ ., data = two_cls_train)

grid_pred <- predict(cls_mod, grid)
grid_pred
#> # A tibble: 625 × 3
#>    .pred_Class1 .pred_Class2 .pred_class
#>           <dbl>        <dbl> <chr>      
#>  1        0.986      0.0137  Class1     
#>  2        0.990      0.0100  Class1     
#>  3        0.992      0.00816 Class1     
#>  4        0.994      0.00646 Class1     
#>  5        0.993      0.00654 Class1     
#>  6        0.990      0.0101  Class1     
#>  7        0.979      0.0213  Class1     
#>  8        0.943      0.0572  Class1     
#>  9        0.862      0.138   Class1     
#> 10        0.696      0.304   Class1     
#> # ℹ 615 more rows
…
