…
two_cls_train <- parabolic[1:400,  ]
two_cls_val   <- parabolic[401:500,]
grid <- expand.grid(X1 = seq(-5.1, 5.0, length.out = 25), 
                    X2 = seq(-5.5, 4.0, length.out = 25))

cls_mod <- tab_pfn(class ~ ., data = two_cls_train)

grid_pred <- predict(cls_mod, grid)
grid_pred
#> # A tibble: 625 × 3
#>    .pred_Class1 .pred_Class2 .pred_class
#>           <dbl>        <dbl> <fct>      
#>  1        0.987      0.0133  Class1     
#>  2        0.990      0.00961 Class1     
#>  3        0.993      0.00684 Class1     
#>  4        0.993      0.00669 Class1     
#>  5        0.992      0.00799 Class1     
#>  6        0.986      0.0136  Class1     
#>  7        0.969      0.0311  Class1     
#>  8        0.930      0.0703  Class1     
#>  9        0.851      0.149   Class1     
#> 10        0.589      0.411   Class1     
#> # i 615 more rows
```
…
