…
``` r
require(modeldata)
require(ggplot2)

two_cls_train <- parabolic[1:400,  ]
two_cls_val   <- parabolic[401:500,]
grid <- expand.grid(X1 = seq(-5.1, 5.0, length.out = 25), 
                    X2 = seq(-5.5, 4.0, length.out = 25))

cls_mod <- TabPFN(class ~ ., data = two_cls_train)

grid_pred <- predict(cls_mod, grid)
grid_pred
#> # A tibble: 625 × 3
#>    .pred_Class1 .pred_Class2 .pred_class
#>           <dbl>        <dbl> <chr>      
#>  1        0.988      0.0116  Class1     
#>  2        0.991      0.00850 Class1     
#>  3        0.994      0.00647 Class1     
#>  4        0.994      0.00571 Class1     
#>  5        0.993      0.00677 Class1     
#>  6        0.989      0.0107  Class1     
#>  7        0.975      0.0246  Class1     
#>  8        0.928      0.0719  Class1     
#>  9        0.830      0.170   Class1     
#> 10        0.628      0.372   Class1     
#> # ℹ 615 more rows
```
…
